…
``` r
# Read the data
ccihe_2018 <- read_excel(tf, sheet = 'Data')
```

 
3. Write a data pipeline to select the variables *ID*, *AGE*, *RACE/ETHNICITY*,*LEVEL*and *DEGREE\_SEEKING*.

``` r
fall_2017_census %>%
  select(ID:GENDER, LEVEL:DEGREE_SEEKING)
```

    # A tibble: 11,037 x 6
       ID          AGE RACE_ETHNICITY     GENDER LEVEL DEGREE_SEEKING
       <chr>     <dbl> <chr>              <chr>  <chr> <chr>         
     1 f9691a5ce    20 White              Female UG    Y             
     2 1ad1b2e26    22 White              Female UG    Y             
     3 6beace93a    21 Hispanic/Latino    Female UG    Y             
     4 35a7aa089    22 Hispanic/Latino    Male   UG    Y             
     5 95b30c72f    19 Two or more races  Male   UG    Y             
     6 c9ae01646    20 Asian              Female UG    Y             
     7 c301d9b82    21 White              Male   UG    Y             
     8 f9893dec8    22 Non-Resident Alien Female UG    Y             
     9 f9c312637    19 Asian              Female UG    Y             
    10 e02e516a1    21 Asian              Male   UG    Y             
    # ... with 11,027 more rows

 
4. Use `filter` to extract all students Age 24 or younger.

``` r
fall_2017_census %>%
  filter(AGE <= 24)
```

    # A tibble: 6,063 x 17
       TERM_CODE ID      AGE RACE_ETHNICITY GENDER CITIZENSHIP HOUSING_IND
           <dbl> <chr> <dbl> <chr>          <chr>  <chr>       <chr>      
     1    201770 f969~    20 White          Female Y           N          
     2    201770 1ad1~    22 White          Female Y           Y          
     3    201770 6bea~    21 Hispanic/Lati~ Female Y           Y          
     4    201770 35a7~    22 Hispanic/Lati~ Male   Y           N          
     5    201770 95b3~    19 Two or more r~ Male   Y           Y          
     6    201770 c9ae~    20 Asian          Female Y           Y          
     7    201770 c301~    21 White          Male   Y           N          
     8    201770 f989~    22 Non-Resident ~ Female N           N          
     9    201770 f9c3~    19 Asian          Female Y           Y          
    10    201770 e02e~    21 Asian          Male   Y           Y          
    # ... with 6,053 more rows, and 10 more variables: GREEK_IND <chr>,
    #   LEVEL <chr>, DEGREE_SEEKING <chr>, COLL_CODE <chr>, DEPT_CODE <chr>,
    #   MAJOR <chr>, DEGREE <chr>, STUDENT_TYPE <chr>, CLASS_CODE <chr>,
    #   REGISTERED_HRS <dbl>
…
``` r
fall_2017_census %<>%  
  left_join(
    admissions_table %>%
      select(-HS_PERCENTILE_RANK)
  )
```

    Joining, by = "ID"

``` r
fall_2017_census
```

    # A tibble: 11,037 x 24
       TERM_CODE ID      AGE RACE_ETHNICITY GENDER CITIZENSHIP HOUSING_IND
           <dbl> <chr> <dbl> <fct>          <chr>  <chr>       <chr>      
     1    201770 f969~    20 White          Female Y           N          
     2    201770 1ad1~    22 White          Female Y           Y          
     3    201770 6bea~    21 Hispanic/Lati~ Female Y           Y          
     4    201770 35a7~    22 Hispanic/Lati~ Male   Y           N          
     5    201770 95b3~    19 Two or more r~ Male   Y           Y          
     6    201770 c9ae~    20 Asian          Female Y           Y          
     7    201770 c301~    21 White          Male   Y           N          
     8    201770 f989~    22 Non-Resident ~ Female N           N          
     9    201770 f9c3~    19 Asian          Female Y           Y          
    10    201770 e02e~    21 Asian          Male   Y           Y          
    # ... with 11,027 more rows, and 17 more variables: GREEK_IND <chr>,
    #   LEVEL <chr>, DEGREE_SEEKING <chr>, COLL_CODE <chr>, DEPT_CODE <chr>,
    #   MAJOR <chr>, DEGREE <chr>, STUDENT_TYPE <chr>, CLASS_CODE <chr>,
    #   REGISTERED_HRS <dbl>, SAT_MATH <dbl>, SAT_VERBAL <dbl>,
    #   SAT_EQIV_MATH <dbl>, SAT_EQUV_VERBAL <dbl>, ACT_MATH <dbl>,
    #   ACT_ENGLISH <dbl>, ACT_COMP <dbl>

9. Take the CCIHE 2018 set and select the 2005, 2010 and 2018 Basic classifications. Select the *UNITID*, *NAME* and the *BASIC* columns. Rename the BASIC Columns to be their corresponding years. Use `gather()` to create variables *YEAR* and *CC*. Remember to the disregard *UNITID* and *NAME* in the gather function.

``` r
ccihe_2018 %>%
  select(UNITID, NAME, contains('BASIC')) %>%
  gather(key = YEAR, value = CC, -UNITID, -NAME)
```

    # A tibble: 17,296 x 4
       UNITID NAME                                       YEAR         CC
        <dbl> <chr>                                      <chr>     <dbl>
     1 177834 A T Still University of Health Sciences    BASIC2005    25
     2 180203 Aaniiih Nakoda College                     BASIC2005    33
     3 222178 Abilene Christian University               BASIC2005    19
     4 138558 Abraham Baldwin Agricultural College       BASIC2005     2
     5 488031 Abraham Lincoln University                 BASIC2005    -3
     6 172866 Academy College                            BASIC2005    14
     7 451079 Academy for Five Element Acupuncture       BASIC2005    -3
     8 457271 Academy for Jewish Religion-California     BASIC2005    -3
     9 412173 Academy for Nursing and Health Occupations BASIC2005    -3
    10 108232 Academy of Art University                  BASIC2005    30
    # ... with 17,286 more rows
…
